{
  "variables" : {
    "aws_access_key" : "",
    "aws_secret_key" : "",
    "aws_region" : "us-east-1",
    "aws_subnet" : "subnet-b38ff8d7",
    "aws_ami" : "ami-8c1be5f6",
    "aws_instance_type" : "t2.micro"
  },

  "builders" : [
    {
      "type" : "amazon-ebs",
      "access_key" : "{{user `aws_access_key`}}",
      "secret_key" : "{{user `aws_secret_key`}}",
      "region" : "{{user `aws_region`}}",
      "subnet_id" : "{{user `aws_subnet`}}",
      "source_ami" : "{{user `aws_ami`}}",
      "instance_type" : "{{user `aws_instance_type`}}",
      "ssh_username" : "ec2-user",
      "ami_name" : "cip-service-{{timestamp}}"
    }
  ],

  "provisioners" : [
    {
      "type" : "file",
      "source" : "./target/microservice-exec.jar",
      "destination" : "./microservice-exec.jar"
    },
    {
      "type" : "shell",
      "inline" : [
        "sudo yum install -y java-1.8.0",
        "sudo yum remove -y java-1.7.0-openjdk",
        "chmod +x microservice-exec.jar",
        "sudo ln -s `pwd`/microservice-exec.jar /etc/init.d/",
        "sudo chkconfig microservice-exec.jar on"
      ]
    }
  ]
}